0.277277,0.083619,0.0611876,0.163233,0.176017,0.118386,0.127737,0.251112,0.320135,0.0612274,0.0281612,0.0421191,0.223966,0.454282,0.202568,
0.27037,0.0863244,0.0624758,0.167139,0.18011,0.119403,0.127342,0.246946,0.331943,0.0614098,0.0299431,0.0450681,0.223218,0.451586,0.208038,
0.263382,0.0891323,0.0638337,0.170839,0.183987,0.120312,0.126865,0.242646,0.343383,0.0615975,0.0318598,0.0482324,0.222246,0.448422,0.213261,
0.256323,0.0920433,0.0652639,0.174306,0.187619,0.121099,0.1263,0.238214,0.354387,0.0617874,0.033917,0.0516209,0.22105,0.444797,0.2182,
0.249208,0.0950588,0.06677,0.177516,0.19098,0.121755,0.125638,0.233655,0.364892,0.0619772,0.0361209,0.0552435,0.219625,0.440717,0.222821,
0.242049,0.0981789,0.0683543,0.180439,0.194039,0.122265,0.124872,0.228971,0.374825,0.0621643,0.0384772,0.0591093,0.217966,0.43618,0.227084,
0.23486,0.101407,0.0700212,0.183056,0.196774,0.12262,0.123997,0.22417,0.384132,0.0623471,0.0409926,0.0632288,0.216074,0.431197,0.230958,
0.227651,0.104744,0.0717745,0.185342,0.199158,0.12281,0.123004,0.219253,0.392752,0.0625228,0.0436742,0.0676132,0.213947,0.425777,0.234413,
0.220432,0.108187,0.0736126,0.187276,0.20117,0.122824,0.121888,0.214224,0.400627,0.0626883,0.0465212,0.0722615,0.211581,0.419919,0.237415,
0.213219,0.111746,0.0755457,0.188839,0.202788,0.122653,0.120644,0.209091,0.407709,0.0628441,0.0495479,0.0771961,0.208979,0.413639,0.239938,
0.206023,0.115418,0.0775733,0.190017,0.203996,0.122293,0.119269,0.203858,0.413958,0.062988,0.0527543,0.0824171,0.206142,0.406948,0.241963,
0.198853,0.119209,0.079701,0.190794,0.204779,0.121736,0.117758,0.198529,0.419336,0.0631194,0.0561482,0.087937,0.20307,0.399854,0.243466,
0.191725,0.123118,0.0819291,0.191159,0.205124,0.120978,0.11611,0.193116,0.423808,0.0632372,0.0597299,0.0937561,0.199771,0.392378,0.244431,
0.184641,0.12715,0.0842632,0.191105,0.205023,0.120014,0.114322,0.187618,0.427355,0.0633409,0.0635069,0.0998864,0.196245,0.384531,0.244847,
0.17762,0.131306,0.0867046,0.190628,0.204472,0.118846,0.112396,0.182049,0.42996,0.0634313,0.0674796,0.106328,0.192503,0.376335,0.244706,
0.170668,0.135595,0.0892598,0.189724,0.203467,0.117471,0.110332,0.176414,0.431614,0.0635091,0.0716556,0.113095,0.18855,0.367809,0.244003,
0.163797,0.140021,0.0919331,0.188396,0.20201,0.115892,0.108132,0.170722,0.432317,0.063576,0.0760391,0.120191,0.184396,0.358976,0.24274,
0.157015,0.144582,0.0947231,0.186649,0.200106,0.114113,0.1058,0.164983,0.432078,0.0636325,0.0806261,0.127611,0.180051,0.349857,0.240922,
0.150335,0.149286,0.0976347,0.184491,0.197765,0.112139,0.103341,0.159208,0.430911,0.0636811,0.0854206,0.135363,0.175528,0.34048,0.238558,
0.143761,0.154133,0.10067,0.181932,0.194996,0.109975,0.100759,0.153404,0.428835,0.0637232,0.0904227,0.143444,0.170837,0.330871,0.23566,
0.137303,0.159134,0.103834,0.178987,0.191815,0.107629,0.0980621,0.147582,0.425886,0.0637628,0.0956363,0.151862,0.165994,0.321055,0.232247,
0.130972,0.164283,0.107124,0.175673,0.188241,0.105113,0.0952585,0.141757,0.422095,0.0638016,0.101054,0.160605,0.161015,0.311068,0.228342,
0.124772,0.169596,0.110549,0.17201,0.184296,0.102435,0.0923556,0.135935,0.417512,0.0638439,0.106683,0.169685,0.155917,0.300943,0.223969,
0.118716,0.175067,0.114105,0.168019,0.18,0.0996092,0.0893647,0.130133,0.412179,0.0638934,0.112516,0.17909,0.150714,0.290701,0.219156,
0.112804,0.180701,0.117794,0.163725,0.175381,0.0966469,0.0862944,0.124359,0.406153,0.063952,0.118549,0.188812,0.145426,0.280385,0.213934,
0.107047,0.186497,0.121616,0.159154,0.170467,0.0935628,0.0831563,0.118626,0.399491,0.0640241,0.124778,0.198848,0.140072,0.270026,0.208338,
0.101447,0.19246,0.125571,0.154335,0.165288,0.0903719,0.0799619,0.112946,0.392259,0.0641136,0.1312,0.209189,0.134669,0.259655,0.202406,
0.0960166,0.198592,0.12966,0.149294,0.159873,0.087089,0.0767241,0.107333,0.384516,0.0642254,0.137811,0.21983,0.129237,0.249307,0.196172,
0.0907532,0.204888,0.133878,0.144065,0.154257,0.0837306,0.073454,0.101795,0.376336,0.0643614,0.144599,0.230753,0.123795,0.239013,0.189679,
0.0856685,0.211351,0.138225,0.138675,0.148469,0.0803124,0.0701649,0.0963484,0.367782,0.0645268,0.15156,0.241952,0.118362,0.228807,0.182964,
0.0807583,0.217969,0.142694,0.133155,0.142544,0.0768496,0.0668672,0.0909983,0.358922,0.0647221,0.158678,0.253401,0.112955,0.218719,0.176069,
0.0760339,0.224752,0.147289,0.127537,0.136515,0.0733593,0.0635754,0.0857609,0.349829,0.0649541,0.165955,0.2651,0.107594,0.20878,0.169033,
0.0714972,0.231686,0.151998,0.121853,0.130415,0.0698588,0.0603023,0.0806467,0.340573,0.065224,0.17337,0.27702,0.102297,0.199022,0.161901,
0.067147,0.238768,0.156818,0.116131,0.124275,0.0663613,0.0570575,0.0756618,0.331216,0.0655342,0.180916,0.289147,0.0970798,0.189466,0.154708,
0.0629882,0.245988,0.161741,0.110399,0.118126,0.0628828,0.0538536,0.0708179,0.321822,0.0658867,0.188578,0.301456,0.0919588,0.180142,0.147493,
0.0590197,0.253339,0.166761,0.104688,0.112,0.059438,0.0507014,0.0661217,0.312458,0.0662839,0.196343,0.31393,0.0869475,0.171069,0.140295,
0.0552452,0.260806,0.171866,0.0990205,0.105921,0.0560397,0.0476107,0.0615826,0.303172,0.0667258,0.204193,0.326538,0.0820611,0.162271,0.133146,
0.0516642,0.268382,0.177051,0.0934246,0.0999189,0.0527018,0.0445921,0.0572072,0.294026,0.0672144,0.212116,0.33926,0.0773124,0.153767,0.126081,
0.0482763,0.276051,0.182303,0.0879214,0.094017,0.0494352,0.0416537,0.053001,0.285064,0.0677491,0.220092,0.352066,0.0727115,0.145572,0.11913,
0.0450813,0.283794,0.187608,0.0825318,0.0882375,0.0462508,0.0388035,0.0489695,0.27633,0.0683293,0.228103,0.364925,0.0682683,0.137698,0.112319,
0.0420785,0.291604,0.192961,0.0772768,0.082603,0.0431591,0.0360497,0.0451176,0.26787,0.068956,0.236137,0.377818,0.0639926,0.13016,0.105677,
0.0392662,0.299455,0.198342,0.0721724,0.0771304,0.0401685,0.0333981,0.0414486,0.259714,0.0696258,0.244167,0.390703,0.0598907,0.122965,0.0992251,
0.0366425,0.307335,0.203743,0.0672326,0.0718351,0.0372859,0.030854,0.0379647,0.251891,0.0703386,0.252181,0.403561,0.0559678,0.116118,0.0929822,
0.0342059,0.315213,0.209143,0.0624719,0.0667322,0.0345187,0.0284229,0.0346689,0.244425,0.0710901,0.260148,0.416342,0.0522294,0.109625,0.086967,
0.0319531,0.323078,0.214532,0.0578992,0.0618317,0.0318713,0.0261077,0.0315613,0.237335,0.0718791,0.268057,0.429028,0.0486776,0.103486,0.0811919,
0.0298818,0.330901,0.219892,0.0535236,0.0571433,0.0293482,0.0239119,0.0286426,0.230634,0.0727011,0.27588,0.441575,0.045314,0.0977002,0.0756689,
0.0279889,0.338666,0.22521,0.0493525,0.0526749,0.0269531,0.021838,0.0259126,0.224334,0.0735541,0.283603,0.453959,0.04214,0.0922656,0.0704081,
0.0262713,0.346339,0.230463,0.0453901,0.0484311,0.0246879,0.0198873,0.0233706,0.218436,0.0744317,0.291195,0.46613,0.0391545,0.0871768,0.0654149,
0.0247249,0.353901,0.23564,0.0416386,0.0444145,0.0225535,0.0180601,0.0210142,0.212941,0.075331,0.298639,0.478064,0.0363553,0.0824263,0.0606927,
0.0233467,0.361332,0.240724,0.0380988,0.0406259,0.0205501,0.0163567,0.0188414,0.207845,0.0762477,0.305917,0.48973,0.0337397,0.0780062,0.0562425,
0.0221326,0.368596,0.245692,0.0347715,0.0370662,0.018678,0.0147768,0.01685,0.203138,0.0771751,0.312998,0.501079,0.0313049,0.0739073,0.0520653,
0.0210784,0.375674,0.250531,0.0316524,0.0337308,0.0169346,0.0133184,0.0150358,0.198808,0.0781089,0.319867,0.512085,0.0290445,0.0701156,0.0481557,
0.0201808,0.382538,0.255224,0.0287404,0.030619,0.0153193,0.0119809,0.0133964,0.194844,0.0790439,0.326499,0.522711,0.0269553,0.0666219,0.0445124,
0.0194353,0.389166,0.259753,0.0260281,0.0277226,0.0138278,0.0107609,0.0119267,0.191222,0.0799743,0.332877,0.532928,0.0250293,0.0634093,0.0411256,
0.0188386,0.395529,0.2641,0.023513,0.0250391,0.0124589,0.00965719,0.0106239,0.18793,0.0808947,0.338976,0.542697,0.0232624,0.0604674,0.037992,
0.018386,0.401603,0.26825,0.0211858,0.0225586,0.0112074,0.00866579,0.00948232,0.184939,0.0817992,0.344778,0.551987,0.0216458,0.0577777,0.0350994,
0.0180741,0.407364,0.272187,0.0190406,0.020275,0.0100701,0.00778418,0.00849818,0.182229,0.0826823,0.350263,0.560769,0.0201732,0.0553268,0.0324403,
0.0178992,0.412793,0.275897,0.0170699,0.0181803,0.00904302,0.00700911,0.00766695,0.179778,0.0835395,0.355416,0.569017,0.0188377,0.0530998,0.0300046,
0.0178579,0.417865,0.279364,0.0152649,0.0162652,0.00812142,0.00633694,0.00698396,0.177558,0.0843648,0.360217,0.5767,0.0176315,0.0510807,0.0277808,
0.0179462,0.422556,0.282573,0.0136171,0.0145205,0.0073007,0.00576406,0.00644444,0.175545,0.0851526,0.364648,0.583788,0.0165469,0.0492534,0.0257576,
0.0181611,0.426851,0.285512,0.0121174,0.0129369,0.00657614,0.00528683,0.00604385,0.173712,0.0858988,0.368696,0.590261,0.0155764,0.0476029,0.0239234,
0.0184996,0.430733,0.288173,0.0107571,0.0115048,0.00594297,0.00490154,0.00577767,0.172036,0.0865993,0.37235,0.596102,0.0147126,0.0461144,0.0222664,
0.0189585,0.434179,0.290538,0.00952739,0.010215,0.00539663,0.00460468,0.00564163,0.170489,0.0872483,0.375591,0.60128,0.0139483,0.044773,0.0207752,
0.0195351,0.437177,0.292601,0.00841907,0.00905779,0.00493222,0.00439252,0.00563138,0.169048,0.0878427,0.378412,0.605782,0.0132762,0.0435644,0.0194377,
0.0202269,0.439716,0.294354,0.00742358,0.00802398,0.00454523,0.00426153,0.00574277,0.16769,0.0883792,0.380803,0.609595,0.0126896,0.0424754,0.0182427,
0.0210318,0.441781,0.295788,0.00653242,0.00710457,0.00423123,0.00420844,0.00597215,0.166392,0.088854,0.382755,0.612702,0.0121816,0.0414927,0.0171791,
0.0219473,0.443361,0.296896,0.00573727,0.00629073,0.00398583,0.00422983,0.00631562,0.165131,0.0892639,0.384258,0.61509,0.0117461,0.0406039,0.0162359,
0.0229713,0.444449,0.297673,0.00503052,0.00557435,0.00380498,0.00432258,0.00676954,0.16389,0.0896068,0.38531,0.616753,0.011377,0.0397977,0.0154032,
0.0241028,0.445044,0.298118,0.00440426,0.00494706,0.00368465,0.00448374,0.00733091,0.162649,0.0898815,0.38591,0.61769,0.0110687,0.0390634,0.0146709,
0.0253398,0.445135,0.298225,0.00385178,0.00440172,0.00362128,0.00471057,0.00799657,0.161392,0.0900852,0.386051,0.61789,0.0108159,0.0383908,0.0140301,
0.0266813,0.444724,0.297996,0.00336591,0.00393069,0.00361117,0.00500033,0.00876367,0.160102,0.0902177,0.385736,0.617359,0.0106136,0.0377705,0.0134716,
0.0281257,0.443807,0.297426,0.00294049,0.00352744,0.00365107,0.00535049,0.00962941,0.158764,0.0902771,0.384962,0.61609,0.0104572,0.0371938,0.0129874,
0.0296725,0.442389,0.296522,0.00256956,0.00318564,0.00373793,0.00575884,0.0105915,0.157369,0.0902642,0.383736,0.614096,0.0103425,0.0366534,0.0125699,
0.0313208,0.440474,0.295285,0.00224788,0.00289972,0.00386903,0.00622332,0.0116478,0.155905,0.0901791,0.382063,0.611383,0.0102659,0.0361425,0.0122125,
0.0330698,0.438071,0.293721,0.00197003,0.00266391,0.0040415,0.00674171,0.0127958,0.154363,0.0900227,0.379949,0.607964,0.0102235,0.0356545,0.0119082,
0.0349191,0.435177,0.291828,0.00173157,0.00247351,0.0042531,0.00731243,0.0140341,0.152733,0.0897943,0.377395,0.603838,0.0102122,0.0351837,0.0116515,
0.0368685,0.431814,0.289623,0.00152818,0.0023239,0.00450154,0.0079337,0.0153607,0.151013,0.0894975,0.374421,0.599036,0.0102293,0.034726,0.0114369,
0.0389171,0.427985,0.287105,0.00135595,0.00221093,0.00478477,0.00860393,0.0167739,0.149194,0.0891327,0.371029,0.593565,0.0102721,0.0342765,0.0112597,
0.0410655,0.423707,0.284289,0.00121137,0.00213087,0.00510103,0.00932189,0.0182725,0.147277,0.0887028,0.367236,0.587449,0.0103385,0.0338321,0.0111155,
0.0433135,0.418992,0.281181,0.00109126,0.00208035,0.00544864,0.0100863,0.0198552,0.145257,0.0882098,0.363053,0.580707,0.0104263,0.0333896,0.0110005,
0.0456605,0.413863,0.277796,0.000992746,0.00205627,0.00582598,0.0108957,0.0215204,0.143135,0.0876577,0.3585,0.57337,0.0105339,0.032947,0.0109114,
0.0481057,0.408327,0.27414,0.000913238,0.00205586,0.00623157,0.011749,0.0232664,0.14091,0.0870475,0.353584,0.565449,0.0106596,0.0325017,0.0108448,
0.0506513,0.40241,0.27023,0.00085049,0.00207679,0.00666456,0.0126458,0.0250937,0.138584,0.0863845,0.348328,0.556983,0.0108024,0.0320529,0.0107986,
0.0532987,0.39613,0.266078,0.000802455,0.0021169,0.00712403,0.0135855,0.0270019,0.136159,0.0856721,0.342747,0.547995,0.0109613,0.0315994,0.0107703,
0.0560417,0.389507,0.261699,0.000767282,0.00217401,0.00760793,0.0145655,0.0289862,0.133639,0.084913,0.336862,0.538516,0.0111347,0.0311404,0.0107577,
0.0588873,0.382565,0.257107,0.000743473,0.00224674,0.00811654,0.015587,0.0310501,0.131027,0.0841127,0.330691,0.528579,0.0113227,0.030676,0.0107596,
0.0618298,0.375329,0.25232,0.000729549,0.00233329,0.00864802,0.0166475,0.0331888,0.12833,0.0832748,0.324257,0.518218,0.0115242,0.0302064,0.0107741,
0.0648727,0.367816,0.247349,0.000724372,0.00243257,0.00920231,0.0177476,0.035404,0.125551,0.0824033,0.317575,0.50746,0.0117389,0.0297317,0.0108003,
0.0680107,0.360057,0.242215,0.000726807,0.00254315,0.00977775,0.0188846,0.0376911,0.122697,0.0815028,0.310674,0.496347,0.011966,0.0292528,0.010837,
0.0712506,0.352069,0.23693,0.000736037,0.00266436,0.010375,0.0200604,0.0400541,0.119774,0.080578,0.303567,0.484904,0.0122061,0.0287705,0.0108837,
0.0745902,0.343884,0.231514,0.000751261,0.00279523,0.010993,0.0212735,0.0424905,0.11679,0.0796343,0.296283,0.473175,0.0124589,0.0282864,0.0109398,
0.0780241,0.335527,0.225985,0.000771766,0.00293482,0.0116305,0.0225217,0.0449961,0.113752,0.0786755,0.288844,0.461196,0.0127238,0.0278018,0.0110045,
0.0815561,0.327017,0.220355,0.000797042,0.00308266,0.0122877,0.0238058,0.0475728,0.110665,0.0777055,0.281265,0.448991,0.0130012,0.0273179,0.0110776,
0.0851843,0.318383,0.214644,0.000826606,0.00323814,0.0129638,0.0251245,0.0502184,0.107539,0.0767299,0.273574,0.436604,0.0132913,0.0268368,0.0111589,
0.0889094,0.309648,0.208867,0.000860095,0.00340086,0.0136586,0.0264777,0.052933,0.10438,0.0757529,0.26579,0.424067,0.0135942,0.0263603,0.0112482,
0.0927261,0.300833,0.203038,0.000897156,0.00357023,0.0143709,0.0278632,0.0557125,0.101196,0.0747775,0.257931,0.411409,0.0139098,0.0258902,0.0113451,
0.0966356,0.29197,0.197179,0.000937571,0.00374601,0.0151005,0.0292809,0.0585569,0.0979953,0.0738098,0.250026,0.398674,0.0142388,0.0254292,0.0114498,
0.100639,0.28308,0.191304,0.000981186,0.00392804,0.0158476,0.0307308,0.0614665,0.0947861,0.0728542,0.242092,0.385892,0.0145816,0.0249797,0.0115626,
0.104731,0.274181,0.185424,0.00102783,0.0041159,0.0166108,0.0322107,0.0644372,0.0915737,0.0719129,0.234146,0.373089,0.0149382,0.0245436,0.011683,
0.108909,0.265299,0.179557,0.00107742,0.00430942,0.0173897,0.0337196,0.0674673,0.0883669,0.0709903,0.22621,0.360301,0.0153091,0.0241238,0.0118113,
0.113175,0.256456,0.173719,0.00112997,0.00450856,0.0181842,0.0352576,0.0705571,0.0851731,0.0700909,0.218304,0.347558,0.0156951,0.0237231,0.0119478,
0.117524,0.247669,0.167919,0.00118545,0.00471309,0.0189934,0.0368225,0.0737028,0.0819981,0.0692168,0.210443,0.334887,0.0160963,0.023344,0.0120922,
0.121953,0.238961,0.162174,0.00124391,0.00492296,0.0198167,0.0384133,0.0769028,0.0788494,0.0683718,0.202646,0.322316,0.0165135,0.0229897,0.0122449,
0.126464,0.230348,0.156495,0.00130549,0.00513826,0.0206543,0.0400303,0.0801576,0.0757328,0.0675594,0.194928,0.309872,0.0169476,0.0226634,0.0124061,
0.131048,0.221844,0.150891,0.00137025,0.00535877,0.0215046,0.0416703,0.0834616,0.072653,0.0667802,0.187302,0.297571,0.0173987,0.0223676,0.0125756,
0.135704,0.213475,0.145378,0.00143838,0.00558453,0.0223673,0.0433323,0.0868132,0.0696191,0.0660388,0.179789,0.285452,0.0178678,0.0221067,0.0127537,
0.140433,0.205249,0.139964,0.00151011,0.00581578,0.0232425,0.0450167,0.0902133,0.066634,0.0653371,0.172397,0.273526,0.0183561,0.0218838,0.0129408,
0.145227,0.19718,0.134656,0.00158562,0.00605239,0.0241288,0.0467203,0.0936564,0.0637024,0.0646756,0.165139,0.261812,0.0188638,0.0217023,0.0131365,
0.150081,0.189281,0.129462,0.0016652,0.00629439,0.0250254,0.0484412,0.0971393,0.060829,0.0640558,0.158025,0.250328,0.019392,0.0215662,0.013341,
0.154999,0.181568,0.124396,0.00174921,0.00654227,0.0259329,0.0501808,0.100665,0.0580198,0.0634818,0.15107,0.239099,0.0199425,0.0214802,0.013555,
0.159972,0.174046,0.11946,0.00183794,0.00679588,0.0268495,0.0519351,0.104226,0.0552766,0.0629519,0.144278,0.22813,0.0205156,0.021448,0.013778,
0.164996,0.166728,0.114662,0.0019318,0.00705551,0.0277751,0.0537034,0.107822,0.0526041,0.0624681,0.137662,0.21744,0.0211128,0.0214744,0.0140104,
0.170068,0.159623,0.110008,0.0020312,0.00732135,0.0287087,0.0554836,0.11145,0.0500054,0.0620308,0.131227,0.207042,0.0217354,0.0215643,0.0142521,
0.175182,0.152734,0.1055,0.00213659,0.00759365,0.0296497,0.0572742,0.115107,0.0474822,0.0616397,0.124978,0.19694,0.0223847,0.0217223,0.0145031,
0.180335,0.14607,0.101145,0.00224853,0.00787271,0.0305974,0.0590734,0.11879,0.0450379,0.0612953,0.118922,0.187148,0.0230624,0.0219544,0.0147637,
0.185525,0.13963,0.0969417,0.00236757,0.00815898,0.0315516,0.0608805,0.122499,0.0426726,0.0609969,0.11306,0.177665,0.0237703,0.0222657,0.015034,
0.190748,0.133428,0.0928999,0.00249427,0.00845279,0.0325118,0.0626937,0.126232,0.0403911,0.0607458,0.107402,0.168509,0.0245103,0.0226625,0.0153142,
0.195992,0.127459,0.0890155,0.00262923,0.00875433,0.0334762,0.0645094,0.129982,0.0381922,0.0605388,0.101944,0.159674,0.0252835,0.0231504,0.0156039,
0.201262,0.121726,0.0852919,0.00277326,0.00906435,0.0344453,0.0663279,0.133751,0.0360777,0.0603766,0.0966903,0.151166,0.026093,0.0237369,0.0159037,
0.206548,0.11623,0.0817286,0.002927,0.00938319,0.0354181,0.0681467,0.137535,0.0340479,0.0602573,0.0916406,0.142984,0.0269404,0.024428,0.0162135,
0.211844,0.110974,0.0783282,0.00309119,0.00971125,0.0363934,0.0699631,0.141329,0.0321046,0.06018,0.0867982,0.135136,0.0278279,0.0252313,0.0165333,
0.217153,0.105954,0.0750882,0.00326675,0.0100494,0.037372,0.0717777,0.145137,0.0302467,0.0601438,0.0821594,0.127613,0.0287586,0.0261543,0.0168636,
0.222461,0.101165,0.0720047,0.00345445,0.0103979,0.0383517,0.0735857,0.148951,0.028473,0.0601446,0.0777196,0.12041,0.0297341,0.0272042,0.0172039,
0.227771,0.0966112,0.0690812,0.00365526,0.0107577,0.0393332,0.0753878,0.152772,0.0267854,0.0601834,0.0734829,0.113533,0.030758,0.0283898,0.017555,
0.233076,0.0922875,0.0663144,0.00387014,0.0111295,0.0403155,0.0771815,0.156597,0.0251829,0.0602573,0.069445,0.106976,0.0318329,0.0297196,0.0179169,
0.238369,0.0881891,0.063701,0.00410003,0.0115137,0.0412978,0.0789643,0.160423,0.0236643,0.0603637,0.0656018,0.100731,0.0329615,0.0312018,0.0182895,
0.243648,0.0843114,0.061238,0.00434598,0.0119113,0.0422797,0.0807347,0.164249,0.0222287,0.0605003,0.0619492,0.0947926,0.0341469,0.0328453,0.0186731,
0.248911,0.0806545,0.0589258,0.00460907,0.0123231,0.0432614,0.0824925,0.168075,0.0208765,0.0606667,0.058487,0.0891605,0.0353928,0.0346596,0.0190684,
0.254149,0.0772042,0.0567548,0.00489037,0.0127499,0.0442416,0.0842341,0.171897,0.0196037,0.0608576,0.0552034,0.0838159,0.0367016,0.0366532,0.019475,
0.259358,0.0739604,0.0547251,0.005191,0.0131925,0.04522,0.0859582,0.175712,0.018411,0.0610719,0.052098,0.0787584,0.0380768,0.0388359,0.0198933,
0.264539,0.0709187,0.052834,0.00551219,0.013652,0.0461968,0.0876645,0.179522,0.0172974,0.061308,0.049167,0.0739818,0.0395224,0.0412176,0.020324,
0.269685,0.0680684,0.0510744,0.00585499,0.0141291,0.0471713,0.0893506,0.183324,0.01626,0.0615621,0.0464012,0.0694715,0.0410409,0.0438064,0.0207671,
0.27479,0.065406,0.049444,0.00622067,0.0146247,0.0481427,0.0910141,0.187114,0.0152987,0.0618317,0.0437975,0.065223,0.042636,0.0466129,0.0212229,
0.279849,0.0629243,0.0479381,0.00661035,0.0151398,0.0491107,0.0926537,0.190892,0.0144116,0.0621142,0.0413496,0.0612261,0.0443105,0.0496453,0.0216917,
0.284863,0.0606161,0.0465521,0.00702517,0.0156754,0.0500756,0.0942689,0.194658,0.0135973,0.0624077,0.0390511,0.0574709,0.0460678,0.052912,0.0221742,
0.28983,0.0584753,0.0452822,0.00746696,0.0162331,0.0510374,0.0958589,0.198412,0.0128546,0.0627096,0.0368966,0.0539484,0.0479132,0.0564273,0.0226711,
0.294736,0.0564937,0.0441225,0.0079358,0.0168125,0.0519942,0.0974195,0.202146,0.0121819,0.0630161,0.0348793,0.0506484,0.0498452,0.0601897,0.0231819,
0.299583,0.0546655,0.0430697,0.00843406,0.0174159,0.052947,0.0989511,0.205864,0.0115785,0.0633254,0.0329938,0.0475621,0.0518711,0.0642173,0.023708,
0.30437,0.052983,0.0421184,0.00896209,0.0180436,0.0538955,0.100453,0.209563,0.0110426,0.0636355,0.0312335,0.0446789,0.0539907,0.0685099,0.0242495,
0.309087,0.0514391,0.041264,0.0095211,0.0186965,0.0548387,0.101922,0.21324,0.0105735,0.0639433,0.0295922,0.0419893,0.0562061,0.0730744,0.024807,
0.313737,0.0500274,0.0405023,0.0101128,0.0193762,0.0557774,0.103359,0.216896,0.0101706,0.0642469,0.028064,0.0394838,0.0585218,0.0779219,0.0253815,
0.318309,0.0487406,0.0398283,0.0107382,0.0200833,0.0567105,0.104761,0.220526,0.00983309,0.0645432,0.0266429,0.0371529,0.0609386,0.0830559,0.0259734,
0.322804,0.0475727,0.0392381,0.011398,0.0208187,0.0576383,0.106128,0.224131,0.00956065,0.064831,0.0253235,0.0349879,0.0634569,0.0884766,0.0265836,
0.327215,0.0465167,0.0387269,0.0120937,0.0215837,0.0585603,0.107458,0.227707,0.00935322,0.0651074,0.0240996,0.0329793,0.066079,0.0941915,0.027213,
0.33154,0.0455661,0.0382901,0.012826,0.0223789,0.0594767,0.108751,0.231252,0.00921066,0.0653712,0.0229654,0.0311178,0.0688039,0.100198,0.0278624,
0.335771,0.0447151,0.0379239,0.0135963,0.0232055,0.0603866,0.110004,0.234763,0.0091339,0.0656196,0.0219161,0.0293956,0.0716328,0.106499,0.0285328,
0.339908,0.0439577,0.0376241,0.0144058,0.0240648,0.0612908,0.111219,0.238239,0.00912375,0.0658515,0.0209463,0.0278041,0.0745664,0.113096,0.0292258,
0.343943,0.0432878,0.0373862,0.0152551,0.0249573,0.0621883,0.112392,0.241675,0.00918135,0.0660647,0.0200506,0.0263351,0.0776018,0.119984,0.0299421,
0.34787,0.0427001,0.0372064,0.0161455,0.0258844,0.0630792,0.113524,0.245067,0.00930862,0.0662579,0.0192244,0.0249811,0.0807381,0.127158,0.0306835,
0.351689,0.0421893,0.0370811,0.0170779,0.0268471,0.0639639,0.114614,0.248415,0.00950771,0.0664302,0.018463,0.0237345,0.0839734,0.134615,0.0314516,
0.355393,0.0417507,0.0370066,0.0180536,0.0278467,0.0648423,0.115662,0.251715,0.00978161,0.0665804,0.0177622,0.0225886,0.0873056,0.142347,0.0322484,
0.358972,0.0413789,0.0369787,0.0190733,0.028884,0.0657135,0.116665,0.254958,0.0101335,0.0667066,0.0171174,0.0215364,0.0907293,0.150343,0.0330753,
0.362423,0.0410697,0.0369943,0.0201388,0.029961,0.0665781,0.117624,0.258143,0.0105678,0.0668082,0.0165247,0.0205716,0.0942432,0.158598,0.0339352,
0.365741,0.0408189,0.03705,0.0212509,0.0310787,0.0674364,0.118539,0.261266,0.0110891,0.0668848,0.0159804,0.0196881,0.0978414,0.167096,0.0348303,
0.368919,0.0406229,0.0371427,0.0224112,0.0322389,0.0682883,0.119409,0.264322,0.0117031,0.0669355,0.0154813,0.0188808,0.10152,0.175826,0.0357636,
0.371951,0.040478,0.0372694,0.0236214,0.0334435,0.0691343,0.120234,0.267305,0.0124161,0.0669602,0.0150238,0.0181442,0.105273,0.184774,0.0367384,
0.374829,0.0403802,0.0374265,0.0248824,0.034694,0.0699744,0.121013,0.270209,0.0132351,0.0669585,0.0146046,0.0174727,0.109092,0.193917,0.0377579,
0.377548,0.0403277,0.0376122,0.0261963,0.0359926,0.0708093,0.121747,0.27303,0.0141681,0.0669307,0.0142215,0.0168632,0.112973,0.203241,0.0388259,
0.3801,0.0403168,0.0378228,0.027565,0.0373416,0.0716394,0.122435,0.275761,0.0152244,0.0668765,0.0138713,0.0163101,0.116907,0.212723,0.039947,
0.382477,0.0403456,0.0380565,0.0289906,0.0387438,0.0724654,0.123078,0.278396,0.0164135,0.0667965,0.0135519,0.0158104,0.120887,0.222346,0.0411255,
0.384675,0.0404122,0.0383109,0.0304757,0.040202,0.0732886,0.123678,0.280931,0.0177464,0.0666914,0.0132613,0.0153607,0.124905,0.232087,0.0423669,
0.386684,0.0405146,0.0385836,0.0320223,0.0417191,0.0741094,0.124233,0.283357,0.019235,0.0665617,0.0129973,0.0149576,0.128952,0.241918,0.0436764,
0.388494,0.0406515,0.0388725,0.0336334,0.0432983,0.0749287,0.124745,0.285667,0.0208917,0.0664079,0.0127585,0.0145986,0.133019,0.251817,0.0450598,
0.390103,0.0408219,0.0391761,0.0353119,0.0449433,0.0757485,0.125215,0.287858,0.0227306,0.066232,0.0125434,0.0142813,0.137097,0.261756,0.0465238,
0.391505,0.0410255,0.0394928,0.0370614,0.0466587,0.0765705,0.125644,0.289923,0.0247665,0.0660354,0.0123508,0.0140038,0.141177,0.271713,0.0480756,
0.392684,0.0412611,0.0398206,0.0388846,0.0484474,0.0773949,0.126033,0.291852,0.0270138,0.0658182,0.0121796,0.0137643,0.145248,0.281655,0.0497213,
0.393639,0.0415292,0.0401587,0.0407864,0.0503152,0.0782247,0.126384,0.293642,0.0294903,0.0655827,0.0120291,0.0135616,0.149303,0.291561,0.0514698,
0.394363,0.0418299,0.0405059,0.0427696,0.0522658,0.0790615,0.126698,0.295287,0.0322116,0.0653312,0.0118987,0.0133948,0.153329,0.301398,0.0533282,
0.394852,0.0421642,0.0408616,0.0448393,0.054305,0.0799079,0.126978,0.296782,0.0351959,0.0650656,0.0117883,0.0132633,0.157321,0.311143,0.0553054,
0.395092,0.0425321,0.0412244,0.046999,0.0564372,0.080765,0.127225,0.298118,0.0384613,0.0647869,0.0116974,0.0131666,0.161265,0.320764,0.0574092,
0.395084,0.0429356,0.0415944,0.0492536,0.0586681,0.0816362,0.127442,0.299293,0.0420261,0.0644985,0.0116264,0.0131051,0.165155,0.330237,0.0596491,
0.394822,0.0433759,0.0419714,0.0516077,0.0610031,0.0825237,0.127631,0.300301,0.0459083,0.0642022,0.0115756,0.0130791,0.168982,0.339538,0.0620334,
0.394297,0.0438545,0.042355,0.0540653,0.0634471,0.0834296,0.127794,0.301137,0.0501266,0.0639,0.0115454,0.0130892,0.172735,0.348636,0.0645706,
0.39351,0.0443738,0.0427455,0.0566308,0.0660054,0.0843568,0.127934,0.301798,0.0546983,0.0635953,0.0115367,0.0131369,0.176407,0.357508,0.0672693,
0.392455,0.044936,0.0431435,0.0593103,0.0686849,0.0853087,0.128054,0.302281,0.0596452,0.0632904,0.0115504,0.0132234,0.179991,0.366131,0.0701401,
0.391125,0.0455426,0.0435488,0.0621035,0.0714859,0.0862848,0.128155,0.302578,0.0649745,0.0629865,0.0115876,0.0133504,0.183476,0.374478,0.0731852,
0.389526,0.0461979,0.0439633,0.0650196,0.0744188,0.0872916,0.128242,0.302694,0.0707134,0.0626884,0.0116499,0.0135202,0.18686,0.382535,0.0764192,
0.387649,0.046903,0.044387,0.068057,0.0774822,0.0883278,0.128315,0.302621,0.0768652,0.0623967,0.0117388,0.0137353,0.190133,0.390275,0.0798421,
0.385498,0.0476619,0.0448216,0.0712215,0.0806828,0.0893973,0.128378,0.302361,0.0834494,0.0621149,0.0118562,0.0139984,0.193289,0.397684,0.0834639,
0.383073,0.0484775,0.0452684,0.0745136,0.0840219,0.0905015,0.128435,0.301912,0.0904738,0.0618459,0.0120043,0.014313,0.196323,0.404739,0.0872878,
0.380371,0.0493526,0.0457287,0.0779351,0.0875015,0.0916412,0.128484,0.301271,0.0979464,0.0615907,0.0121851,0.0146823,0.199229,0.411429,0.0913171,
0.377398,0.05029,0.0462042,0.0814837,0.0911197,0.0928168,0.12853,0.300441,0.105867,0.0613522,0.0124013,0.0151104,0.202001,0.417734,0.0955511,
0.374152,0.0512938,0.0466968,0.0851628,0.0948805,0.0940304,0.128573,0.29942,0.114249,0.0611324,0.0126556,0.0156014,0.204636,0.423645,0.0999957,
0.370641,0.0523664,0.0472086,0.0889666,0.098778,0.0952802,0.128614,0.298211,0.12308,0.0609331,0.012951,0.0161601,0.207129,0.429149,0.104644,
0.366869,0.0535108,0.0477415,0.0928926,0.10281,0.0965661,0.128655,0.296815,0.132357,0.0607558,0.0132904,0.016791,0.209476,0.434238,0.109495,
0.362837,0.0547309,0.0482979,0.0969381,0.106974,0.0978873,0.128696,0.295232,0.142077,0.0606022,0.0136776,0.0175,0.211672,0.438899,0.114544,
0.358552,0.0560286,0.0488799,0.101093,0.111259,0.0992398,0.128735,0.293464,0.152218,0.0604728,0.0141163,0.0182927,0.213714,0.443125,0.11978,
0.354025,0.0574067,0.0494898,0.105349,0.115657,0.100621,0.128774,0.291515,0.162762,0.0603692,0.0146098,0.0191746,0.215597,0.446907,0.125192,
0.349259,0.0588685,0.0501305,0.109701,0.120161,0.102029,0.128809,0.289387,0.173694,0.0602914,0.0151625,0.0201525,0.21732,0.450245,0.130772,
0.344264,0.0604164,0.0508047,0.114134,0.124757,0.103458,0.12884,0.287083,0.18498,0.0602403,0.015779,0.0212336,0.218877,0.453131,0.136502,
0.339051,0.0620525,0.0515147,0.118635,0.129431,0.104902,0.128864,0.284606,0.196591,0.0602159,0.0164634,0.0224242,0.220266,0.455561,0.142364,
0.333623,0.0637782,0.0522628,0.123187,0.134165,0.106354,0.128875,0.281956,0.208485,0.0602166,0.0172204,0.0237319,0.221481,0.457529,0.148335,
0.327993,0.0655956,0.0530518,0.127777,0.138944,0.107808,0.128873,0.279139,0.220626,0.0602425,0.0180546,0.0251638,0.222519,0.459035,0.154397,
0.322175,0.0675075,0.0538853,0.132383,0.143746,0.109255,0.128852,0.276159,0.232964,0.0602932,0.018972,0.0267294,0.223377,0.460078,0.16052,
0.316176,0.0695142,0.0547652,0.136987,0.148551,0.110686,0.128806,0.273018,0.24545,0.0603667,0.0199771,0.0284358,0.22405,0.460655,0.16668,
0.310009,0.071617,0.0556943,0.141565,0.153332,0.112092,0.12873,0.269718,0.258024,0.0604615,0.0210755,0.0302918,0.224532,0.460761,0.172842,
0.303682,0.0738173,0.0566754,0.146094,0.158067,0.11346,0.128616,0.266262,0.270634,0.0605755,0.0222727,0.0323062,0.22482,0.460398,0.178978,
0.297212,0.0761166,0.057712,0.150553,0.162732,0.114783,0.128461,0.262657,0.283219,0.0607075,0.0235744,0.0344879,0.224911,0.459572,0.185054,
0.290606,0.0785147,0.0588059,0.154912,0.167295,0.116046,0.128254,0.2589,0.295708,0.060854,0.0249866,0.0368464,0.224797,0.458273,0.191032,
0.283884,0.0810134,0.0599609,0.159147,0.171729,0.117238,0.127991,0.255002,0.308036,0.0610141,0.0265154,0.0393913,0.224476,0.456506,0.196877,
